%!PS-Adobe-2.0
% Hello, world!


%800 200 sub                % yields 600 on the stack
%==                         % print top of stack
%pstack                     % print stack

% Create a triangle with two fixed points, and a third calculated point.
newpath
    144 72  moveto
    144 432 lineto
    350 72 432 add 2 idiv lineto
    144 72  lineto
    stroke

newpath
    445 400 moveto
    100 0   rlineto
    0 100   rlineto
    -100 0  rlineto
    0 -100  rlineto
    closepath
    4 setlinewidth
    fill
    stroke

showpage
