%!PS
% arithmetic.ps - Simple arithmetic in PostScript
%

/twentyeight 28 def
twentyeight =
(4*5 + 3*4 - 4 = 28 =)
4 5 mul   % 20
3 4 mul   % 12
add       % 20 + 12 = 32
4 sub     % 32 + 4  = 28
= =       % Print message and value

(2 * 2 = 4 =)
2 dup mul
exch      % just 4 on the stack
exch
stack
clear

(3 - 4 = -1)
4 3 exch sub  % 3 - 4 = -1
= =       % show top 2 stack items

(10 % 3 = 1 = )
10 3 mod
= =

(10 // 3 = 3 = )
10 3 idiv
= =

(sqrt(3^2 + 4^2) = 5 =)
3 dup mul 4 dup mul add sqrt
= =
