%!PS-Adobe-2.0
% 03_boxes.ps - make some colored boxes
%
% © 2020 Cameron Conn

% Black Box
newpath
    252 324 moveto
    0 72    rlineto
    72 0    rlineto
    0 -72   rlineto
    -72 0   rlineto
    closepath
    fill

% Gray Box
newpath
    270 360 moveto
    0 72    rlineto
    72 0    rlineto
    0 -72   rlineto
    -72 0   rlineto
    closepath
    .4 setgray
    fill

% Lighter Box
newpath
    288 396 moveto
    0 72    rlineto
    72 0    rlineto
    0 -72   rlineto
    -72 0   rlineto
    closepath
    .8 setgray
    fill

showpage
