%!PS
% escaped_strings.ps - Escaped strings in PostScript
%

% abc01234
(abc\0601234) =
(abc01234) =

% abc\ndef
(abc\ndef) =
(abc
def) =

% this is a \backslash\
(this is a \\backslash\\) =
(this is a \134backslash\134) =

% this should have no newlines
(this should \
have no newlines) =
(this should have )
(no newlines) add =

% Woah! Unmatched (parentheses(
(Woah! Unmatched \(parentheses\() =
(Woah! Unmatched \
\50parentheses\050) =

% (setq doc-mode)
(\(setq doc-mode\)) =
(\50setq doc-mode\051) =
((setq doc-mode)) =

% oh
(oh) =
<6F68> =
(\157\150) =
