%!PS-Adobe-2.0
% force_gc.ps - A test script to force the Garbage Collector to run.
%
% © 2020 Cameron Conn

(hey there)
 2 3.62 7.5 (hey there)
 2 3.62 7.5 (hey there)
 2 3.62 7.5 (hey there)
 2 3.62 7.5 (hey there)
 2 3.62 7.5 (hey there)
 2 3.62 7.5 (hey there)
 2 3.62 7.5 (hey there)
 2 3.62 7.5 (hey there)
 2 3.62 7.5 (hey there)
 2 3.62 7.5 (hey there)
 2 3.62 7.5 (hey there)
 2 3.62 7.5 (hey there)
 2 3.62 7.5 (hey there)
 2 3.62 7.5 (hey there)
 2 3.62 7.5 (hey there)
 2 3.62 7.5 (hey there) clear
 2 3.62 7.5 (hey there)
 2 3.62 7.5 (hey there)
 2 3.62 7.5 (hey there)
 2 3.62 7.5 (hey there)
 2 3.62 7.5 (hey there)
 2 3.62 7.5 (hey there)
 2 3.62 7.5 (hey there)
 2 3.62 7.5 (hey there)
 2 3.62 7.5 (hey there)
 2 3.62 7.5 (hey there)
 2 3.62 7.5 (hey there)
 2 3.62 7.5 (hey there)
 2 3.62 7.5 (hey there)
 2 3.62 7.5 (hey there)
 2 3.62 7.5 (hey there)
 2 3.62 7.5 (hey there)
 2 3.62 7.5 (hey there)
 2 3.62 7.5 (hey there)
 2 3.62 7.5 (hey there)
 2 3.62 7.5 (hey there)
 2 3.62 7.5 (hey there)
 2 3.62 7.5 (hey there)
 2 3.62 7.5 (hey there)
 2 3.62 7.5 clear

 200 300 moveto
 (How'd I do?) show
