%!PS
% 05.ps
%
% © 2020 Cameron Conn

/showGorilla { moveto (Gorilla) show } def  % stack: x y => ---

/scaleTimes     % stack: scale => ---
{
    /Times-Roman findfont
    exch scalefont  % use `exch` to access font scale on stack
    setfont
} def

% Before `scaleTimes`
%/Times-Roman findfont 6 scalefont setfont
%72 300 showGorilla
%/Times-Roman findfont 10 scalefont setfont
%72 275 showGorilla
%/Times-Roman findfont 15 scalefont setfont
%72 250 showGorilla
%/Times-Roman findfont 20 scalefont setfont
%72 225 showGorilla

% After `scaleTimes`
6 scaleTimes
72 300 showGorilla
10 scaleTimes
72 275 showGorilla
15 scaleTimes
72 250 showGorilla
20 scaleTimes
72 225 showGorilla

showpage

