%!PS
% text - Just show some text
%
% © 2020 Cameron Conn


/Helvetica findfont 32 scalefont setfont

0 0 moveto

(Hello, world!) show

250 400 moveto
(This is my PostScript interpreter) show
showpage


